bankKiller                          SUCCESS  #WARNINGS   = 22       Message = ' No bank of type 'HltDecReports' has been found - nothing to be removed'
bankKiller                          SUCCESS  #WARNINGS   = 22       Message = ' No bank of type 'HltLumiSummary' has been found - nothing to be removed'
bankKiller                          SUCCESS  #WARNINGS   = 22       Message = ' No bank of type 'HltRoutingBits' has been found - nothing to be removed'
bankKiller                          SUCCESS  #WARNINGS   = 22       Message = ' No bank of type 'HltSelReports' has been found - nothing to be removed'
bankKiller                          SUCCESS Exceptions/Errors/Warnings/Infos Statistics : 0/0/4/0
ToolSvc                                INFO Removing all tools created by ToolSvc
ApplicationMgr                         INFO Application Manager Finalized successfully
ApplicationMgr                         INFO Application Manager Terminated successfully
LHCb__MDF__IOAlg                       INFO Number of counters : 1
 |    Counter                                      |
 | "#banks in raw event"                           |      1000 |    1025000 |     1025.0 |     0.0000 |        1025 |        1025 |
DeterministicPrescaler              SUCCESS Number of counters : 1
 |    Counter                                      |     #     |    sum     | mean/eff^* | rms/err^*  |     min     |     max     |
 |*"#accept"                                       |      1000 |       1000 |( 100.0000 +- 0.000000)% |
PrGECFilter                         SUCCESS Number of counters : 2
 |    Counter                                      |     #     |    sum     | mean/eff^* | rms/err^*  |     min     |     max     |
 | "Nb Events Processed"                           |      1000 |
 | "Nb events removed"                             |        65 |
VeloClusterTrackingSIMD                INFO Number of counters : 2
 |    Counter                                      |
 | "Nb of Produced Clusters"                       |       935 |    1617568 |     1730.0 |
 | "Nb of Produced Tracks"                         |       935 |     208195 |     222.67 |
TrackBeamLineVertexFinderSoA           INFO Number of counters : 1
 |    Counter                                      |
 | "Nb PVs"                                        |       935 |       4391 |     4.6963 |
require_pvs                         SUCCESS Number of counters : 1
 |    Counter                                      |     #     |    sum     | mean/eff^* | rms/err^*  |     min     |     max     |
 |*"Cut selection efficiency"                      |       935 |        929 |( 99.35829 +- 0.2611356)% |
PrStorePrUTHits                        INFO Number of counters : 2
 |    Counter                                      |
 | "# valid banks"                                 |    167220 |
 | "# valid source ID"                             |    167220 |
PrVeloUT                               INFO Number of counters : 2
 |    Counter                                      |
 | "#seeds"                                        |       929 |     128694 |     138.53 |
 | "#tracks"                                       |       929 |      32775 |     35.280 |
SciFiTrackForwarding                   INFO Number of counters : 8
 |    Counter                                      |
 | "Accepted input tracks"                         |     32775 |
 | "Created long tracks"                           |       929 |      17077 |     18.382 |
 | "Search S1"                                     |     27269 |
 | "Search S1UV"                                   |     19767 |
 | "Search S2"                                     |     65529 |
 | "Search S2 UV"                                  |     23769 |
 | "Search S3"                                     |    617940 |
 | "Search S3UV"                                   |    108526 |
VeloKalman                          SUCCESS Number of counters : 1
 |    Counter                                      |     #     |    sum     | mean/eff^* | rms/err^*  |     min     |     max     |
 | "Nb of Produced Tracks"                         |       929 |      17077 |     18.382 |
PrFilter__PrFittedForwardTracksW... SUCCESS Number of counters : 1
 |    Counter                                      |     #     |    sum     | mean/eff^* | rms/err^*  |     min     |     max     |
 |*"Cut selection efficiency"                      |     17077 |         17 |(0.09954910 +- 0.02413218)% |
PrFilter__PrFittedForwardTracksW... SUCCESS Number of counters : 1
 |    Counter                                      |     #     |    sum     | mean/eff^* | rms/err^*  |     min     |     max     |
 |*"Cut selection efficiency"                      |     17077 |       1177 |( 6.892311 +- 0.1938516)% |
CombineTracks__2Body__PrFittedFo... SUCCESS Number of counters : 3
 |    Counter                                      |     #     |    sum     | mean/eff^* | rms/err^*  |     min     |     max     |
 |*"# passed combination cut"                      |      1122 |        141 |( 12.56684 +- 0.9895888)% |
 |*"# passed vertex cut"                           |       141 |         18 |( 12.76596 +- 2.810348)% |
 |*"# passed vertex fit"                           |       141 |        141 |( 100.0000 +- 0.000000)% |
LHCb__Converters__Track__v2__fro... SUCCESS Number of counters : 1
 |    Counter                                      |     #     |    sum     | mean/eff^* | rms/err^*  |     min     |     max     |
 | "Nb of Produced Tracks"                         |        22 |         17 |    0.77273 |
LHCb__Converters__Track__v2__fro... SUCCESS Number of counters : 1
 |    Counter                                      |     #     |    sum     | mean/eff^* | rms/err^*  |     min     |     max     |
 | "Nb of Produced Tracks"                         |        22 |         80 |     3.6364 |
